ggplot
…
extended and beyond…

1 GGPLOT Extended

1.0.1 Load data and libraries

We will load the following packages

Tidyverse (we will use tidyr, dplyr, and ggplot)

here (to pull the data from its absolute path)

We will continue using our “data_to_explore.csv” file. This is the one that we wrangled from three different data frames; log files, grade data and survey data originally form Macfadyen, L. P., & Dawson, S. (2010). “Mining LMS data to develop an early warning system for educators: A proof of concept.”

# A tibble: 943 × 34
   student_id subject semester section total_po…¹ total…² propo…³ gender enrol…⁴
   <chr>      <chr>   <chr>    <chr>        <dbl>   <dbl>   <dbl> <chr>  <chr>  
 1 43146      FrScA   S216     02            1217   1150   0.945  F      Course…
 2 44638      OcnA    S116     01            1676   1384.  0.826  M      Course…
 3 47448      FrScA   S216     01            1232   1116   0.906  F      Other  
 4 47979      OcnA    S216     01            1833   1493.  0.814  M      Course…
 5 48797      PhysA   S116     01            2225   1995.  0.897  M      Learni…
 6 51943      FrScA   S216     03            1222     70   0.0573 M      Learni…
 7 52326      AnPhA   S216     01            1775   1519.  0.855  F      Other  
 8 52446      PhysA   S116     01            2225   2198   0.988  F      Learni…
 9 53447      FrScA   S116     01            1212   1173   0.968  F      Course…
10 53475      FrScA   S116     02            1212      0   0      F      Course…
# … with 933 more rows, 25 more variables: enrollment_status <chr>,
#   time_spent <dbl>, time_spent_hours <dbl>, course_id <chr>, int <dbl>,
#   val <dbl>, percomp <dbl>, tv <dbl>, q1 <dbl>, q2 <dbl>, q3 <dbl>, q4 <dbl>,
#   q5 <dbl>, q6 <dbl>, q7 <dbl>, q8 <dbl>, q9 <dbl>, q10 <dbl>, date_x <dttm>,
#   post_int <dbl>, post_uv <dbl>, post_tv <dbl>, post_percomp <dbl>,
#   date_y <dttm>, date <dttm>, and abbreviated variable names
#   ¹​total_points_possible, ²​total_points_earned, ³​proportion_earned, …
…
